{
    "name": "Pagos",
    "alias": "pagos",
    "description": "",
    "keywords": [],
    "active": 1,
    "order": 10,
    "providers": [
        "App\\Modules\\Pagos\\Providers\\PagosServiceProvider"
    ],
    "aliases": {},
    "files": [
        "start.php"
    ],
    "requires": []
}
