1BAMRVECA    C174             000000DOMICJ0306873660000000010000000000000100020171127010501342711340369060000000000000000000000000010000000000000100000000000000000000000000000000000000000000000000000000000000
2V0013684680001050113070113287747      000013684680                 00000000000002850                              13684680         0000000157202620000000000021CREARIA SALDO NEGATIVO        15720262       0000000000000000                                   
2V0013684680001050113070113287747      000013684680                 00000000000002850                              13684680         0000000157202630000000000021CREARIA SALDO NEGATIVO        15720263       0000000000000000                                   
2V0013684680001050113070113287747      000013684680                 00000000000002850                              13684680         0000000157202640000000000021CREARIA SALDO NEGATIVO        15720264       0000000000000000                                   
2V0013684680001050113070113287747      000013684680                 00000000000002850                              13684680         0000000157202650000000000021CREARIA SALDO NEGATIVO        15720265       0000000000000000                                   
2V0005184842001050047810047395524      00005184842                  00000000000003300                              5184842          0000000157202660000000000021CREARIA SALDO NEGATIVO        15720266       0000000000000000                                   
2V0005184842001050047810047395524      00005184842                  00000000000003300                              5184842          0000000157202670000000000021CREARIA SALDO NEGATIVO        15720267       0000000000000000                                   
2V0005184842001050047810047395524      00005184842                  00000000000003300                              5184842          0000000157202680000000000021CREARIA SALDO NEGATIVO        15720268       0000000000000000                                   
2V0005184842001050047810047395524      00005184842                  00000000000003300                              5184842          0000000157202690000000000021CREARIA SALDO NEGATIVO        15720269       0000000000000000                                   
